<?xml version="1.0" encoding="UTF-8"?>
<svg width="19px" height="18px" viewBox="0 0 19 18" version="1.1" xmlns="http://www.w3.org/2000/svg" xmlns:xlink="http://www.w3.org/1999/xlink">
    <!-- Generator: Sketch 41.2 (35397) - http://www.bohemiancoding.com/sketch -->
    <title>checked_disable</title>
    <desc>Created with Sketch.</desc>
    <defs>
        <rect id="path-1" x="0" y="2" width="16" height="16"></rect>
        <mask id="mask-2" maskContentUnits="userSpaceOnUse" maskUnits="objectBoundingBox" x="0" y="0" width="16" height="16" fill="white">
            <use xlink:href="#path-1"></use>
        </mask>
    </defs>
    <g id="Ui" stroke="none" stroke-width="1" fill="none" fill-rule="evenodd">
        <g id="checkboxes/tags/pagination" transform="translate(-739.000000, -280.000000)">
            <g id="Group" transform="translate(120.000000, 230.000000)">
                <g id="checked_disable" transform="translate(619.000000, 50.000000)">
                    <use id="Rectangle-56-Copy-12" stroke="#D7D7D7" mask="url(#mask-2)" stroke-width="2" fill="#F8F8F8" xlink:href="#path-1"></use>
                    <path d="M7.37325332,10.9469163 L4.41421356,7.98787654 L3,9.4020901 L6.00842518,12.4105153 L5.98744579,12.4330129 L6.63169401,13.0337841 L7.24264069,13.6447308 L7.26397542,13.6233961 L7.45015319,13.7970096 L19.0441253,1.36399672 L17.5814179,0 L7.37325332,10.9469163 Z" id="Rectangle-130" fill="#CACACA"></path>
                </g>
            </g>
        </g>
    </g>
</svg>