<?xml version="1.0" encoding="UTF-8"?>
<svg width="19px" height="18px" viewBox="0 0 19 18" version="1.1" xmlns="http://www.w3.org/2000/svg" xmlns:xlink="http://www.w3.org/1999/xlink">
    <!-- Generator: Sketch 41.2 (35397) - http://www.bohemiancoding.com/sketch -->
    <title>checked_selected</title>
    <desc>Created with Sketch.</desc>
    <defs>
        <rect id="path-1" x="0" y="2" width="16" height="16"></rect>
        <mask id="mask-2" maskContentUnits="userSpaceOnUse" maskUnits="objectBoundingBox" x="0" y="0" width="16" height="16" fill="white">
            <use xlink:href="#path-1"></use>
        </mask>
    </defs>
    <g id="Ui" stroke="none" stroke-width="1" fill="none" fill-rule="evenodd">
        <g id="checkboxes/tags/pagination" transform="translate(-270.000000, -280.000000)">
            <g id="Group" transform="translate(120.000000, 230.000000)">
                <g id="checked_selected" transform="translate(150.000000, 50.000000)">
                    <use id="Rectangle-56-Copy-7" stroke="#315EFB" mask="url(#mask-2)" stroke-width="2" xlink:href="#path-1"></use>
                    <path d="M7.22680671,11.3125931 L4.26776695,8.35355339 L2.85355339,9.76776695 L5.86197857,12.7761921 L5.84099918,12.7986898 L6.4852474,13.399461 L7.09619408,14.0104076 L7.11752881,13.9890729 L7.30370658,14.1626865 L18.8976787,1.72967357 L17.4349713,0.365676851 L7.22680671,11.3125931 Z" id="Rectangle-130" fill="#315EFB"></path>
                </g>
            </g>
        </g>
    </g>
</svg>