<?xml version="1.0" encoding="UTF-8"?>
<svg width="16px" height="16px" viewBox="0 0 16 16" version="1.1" xmlns="http://www.w3.org/2000/svg" xmlns:xlink="http://www.w3.org/1999/xlink">
    <!-- Generator: Sketch 41.2 (35397) - http://www.bohemiancoding.com/sketch -->
    <title>unchecked_disable</title>
    <desc>Created with Sketch.</desc>
    <defs>
        <rect id="path-1" x="0" y="0" width="16" height="16"></rect>
        <mask id="mask-2" maskContentUnits="userSpaceOnUse" maskUnits="objectBoundingBox" x="0" y="0" width="16" height="16" fill="white">
            <use xlink:href="#path-1"></use>
        </mask>
    </defs>
    <g id="Ui" stroke="none" stroke-width="1" fill="none" fill-rule="evenodd">
        <g id="checkboxes/tags/pagination" transform="translate(-739.000000, -338.000000)" stroke="#D7D7D7" stroke-width="2" fill="#F8F8F8">
            <g id="Group" transform="translate(120.000000, 230.000000)">
                <g id="unchecked_disable" transform="translate(619.000000, 108.000000)">
                    <use id="Rectangle-56-Copy-13" mask="url(#mask-2)" xlink:href="#path-1"></use>
                </g>
            </g>
        </g>
    </g>
</svg>