<svg xmlns="http://www.w3.org/2000/svg" width="64" height="52" viewBox="0 0 64 52">
    <g fill="none" fill-rule="evenodd" stroke="#222829" stroke-width="2">
        <path d="M61 30v21h-4v-6H7v6H3V30a7 7 0 0 1 7-7h44a7 7 0 0 1 7 7zM8 23V8a7 7 0 0 1 7-7h34a7 7 0 0 1 7 7v15"/>
        <path d="M12 20v-4a5 5 0 0 1 5-5h8a5 5 0 0 1 5 5v4M34 20v-4a5 5 0 0 1 5-5h8a5 5 0 0 1 5 5v4M58 41H6M31 5h2M27 5h2M35 5h2M0 51h64"/>
    </g>
</svg>
