<svg xmlns="http://www.w3.org/2000/svg" width="56" height="64" viewBox="0 0 56 64">
    <g fill="none" fill-rule="evenodd" stroke="#fff" stroke-linejoin="round" stroke-width="1">
        <path d="M6 36a3.001 3.001 0 0 0 6 0 3.001 3.001 0 0 0-6 0zM49 26c0 13.807-11 25-11 25S27 39.807 27 26 38 1 38 1s11 11.193 11 25zM46 63H30l8-12z"/>
        <path d="M47 15.968C44.802 17.214 41.584 18 38 18c-3.582 0-6.798-.785-8.996-2.03M37 10h2M49 26l6 15-9-2M27 26l-6 15 9-2M44 22.099c-1.795.576-3.836.9-6 .9-2.166 0-4.209-.325-6.006-.902M44 26.099c-1.795.576-3.836.9-6 .9-2.166 0-4.209-.325-6.006-.902M9 39v17a7 7 0 1 0 14 0v-7l-6 6M9 0v5a4 4 0 0 0 4 4 4 4 0 0 1 0 8H5a4 4 0 0 0 0 8 4 4 0 0 1 4 4v4"/>
    </g>
</svg>
