<svg xmlns="http://www.w3.org/2000/svg" width="64" height="64" viewBox="0 0 64 64">
    <g fill="none" fill-rule="evenodd" stroke="#fff" stroke-linejoin="round" stroke-width="1">
        <path d="M32 35h28a3.001 3.001 0 0 1 0 6H32M32 31h32M32 27h31c0-6.075 0-18-27-18-6.984 0-12.162.798-16 2.086M64 45c-2 0-2 4-4 4s-2-4-4-4-2 4-4 4-2-4-4-4-2 4-4 4-2-4-4-4-2 4-4 4-2-4-4-4M32 53h31v5a5 5 0 0 1-5 5H32"/>
        <path d="M29 63H1v-3l2-2-2-2V24l2-2-2-2v-3h28v3l-2 2 2 2v32l-2 2 2 2zM6 58h18M6 22h18M17 17v-5L12 1H8l5 11v5"/>
        <path d="M23 38a8 8 0 1 1-16 0 8 8 0 0 1 16 0zM11 50h8"/>
    </g>
</svg>
