<svg xmlns="http://www.w3.org/2000/svg" width="64" height="64" viewBox="0 0 64 64">
    <g fill="none" fill-rule="evenodd" stroke="#222829" stroke-width="2">
        <path stroke-linejoin="round" d="M29 26l3-8v-7M50 63H34M42 11v7l5 13v9M29 35h18M39 51h-8M32 7h10a2 2 0 0 1 0 4H32a2 2 0 0 1 0-4zM19 63h12V41H19zM19 41H1v22h18"/>
        <path stroke-linejoin="round" d="M19 41l6-14 6 14M1 41l6-14h18M25 27v-4H7v4M63 51c0 6.627-5.373 12-12 12s-12-5.373-12-12 5.373-12 12-12 12 5.373 12 12zM51 42v2M59 51a8 8 0 0 1-8 8"/>
        <path d="M6 59h8"/>
        <path stroke-linejoin="round" d="M7 20V1h44v35"/>
        <path d="M10 5h16M10 9h8"/>
        <path stroke-linejoin="round" d="M51 1l6 6v29M16 34a3 3 0 1 1-6 0 3 3 0 0 1 6 0zM25 44v2M25 48v2M25 52v2"/>
    </g>
</svg>
