<svg xmlns="http://www.w3.org/2000/svg" width="64" height="60" viewBox="0 0 64 60">
    <g fill="none" fill-rule="evenodd" stroke="#222829" stroke-width="2">
        <path stroke-linejoin="round" d="M22 49h23M43 53H24M55 53a6 6 0 0 1-12 0 6 6 0 0 1 12 0zM24 53a6 6 0 0 1-12 0 6 6 0 0 1 12 0zM58 22l-3 13H12V13h30M5 1c1.656 0 3 1.344 3 3v32M9 1c1.656 0 3 1.344 3 3v9M0 1h9M0 59h64"/>
        <path stroke-linejoin="round" d="M44 21c-2.111 0-1.889-2-4-2-2.11 0-1.89 2-4 2-2.109 0-1.891-2-4-2-2.11 0-1.89 2-4 2-2.11 0-1.889-2-4-2-2.11 0-1.89 2-4 2-2.109 0-1.891-2-4-2M52 29c-2.113 0-1.887-2-4-2s-1.887 2-4 2c-2.111 0-1.889-2-4-2-2.11 0-1.89 2-4 2-2.109 0-1.891-2-4-2-2.11 0-1.89 2-4 2-2.11 0-1.889-2-4-2-2.11 0-1.89 2-4 2-2.109 0-1.891-2-4-2M12 53a9 9 0 0 1-9-9 9 9 0 0 1 9-9h43a4 4 0 0 1-4 4H12a5 5 0 0 0-5 5 5 5 0 0 0 5 5h2M63 10a9 9 0 0 1-9 9 9 9 0 0 1-9-9 9 9 0 0 1 9-9 9 9 0 0 1 9 9z"/>
        <path d="M52 7h2v7"/>
        <path stroke-linejoin="round" d="M19 53a1 1 0 1 1-2 0 1 1 0 1 1 2 0zM50 53a1 1 0 1 1-2 0 1 1 0 1 1 2 0z"/>
    </g>
</svg>
